{
  "bundles":[
    {"name":"de.rpgframework.jfx.CharacterHandleBox"},
    {"name":"de.rpgframework.jfx.DataItemPane"},
    {"name":"de.rpgframework.jfx.FilteredListPage"},
    {"name":"de.rpgframework.jfx.GenericDescriptionVBox"},
    {"name":"de.rpgframework.jfx.Panes"},
    {"name":"de.rpgframework.jfx.RPGFrameworkJFXConstants"},
    {"name":"de.rpgframework.jfx.pages.CharactersOverviewPage"},
    {"name":"de.rpgframework.jfx.pages.CharacterViewLayout"},
    {"name":"de.rpgframework.jfx.pages.Pages"},
    {"name":"de.rpgframework.jfx.rules.SkillTable"},
    {"name":"de.rpgframework.jfx.section.Section"},
    {"name":"de.rpgframework.jfx.wizard.WizardPages"}
  ]
}
